[
    {
        "cedula": "1306235472",
        "nombres": "Pablo Morales",
        "direccion": "Calle: 310; Avenida: 120",
        "telefono": "0990623064",
        "correo": "pablo@gmail.com"
    },

    {
        "cedula": "1306235472",
        "nombres": "Marco Muñoz",
        "direccion": "Calle: 300; Avenida: 100",
        "telefono": "0990645604",
        "correo": "marcom@gmail.com"
    },

    {
        "cedula": "1306235472",
        "nombres": "Pedro Castro",
        "direccion": "Calle: 200; Avenida: 30",
        "telefono": "0999323094",
        "correo": "pedroc@gmail.com"
    },

    {
        "cedula": "1305627472",
        "nombres": "Maria Carreño",
        "direccion": "Calle: 150; Avenida: 60",
        "telefono": "0990347069",
        "correo": "mariaa@gmail.es"
    },

    {
        "cedula": "1301295474",
        "nombres": "Byron Sanchez",
        "direccion": "Calle: 360; Avenida: 120",
        "telefono": "0990399064",
        "correo": "byron@gmail.com"
    },

    {
        "cedula": "1314296471",
        "nombres": "Marlon Romaño",
        "direccion": "Calle: 200; Avenida: 120",
        "telefono": "0990933064",
        "correo": "marco@gmail.com"
    },

    {
        "cedula": "1303753618",
        "nombres": "Alfredo Quiñonez",
        "direccion": "Calle: 310; Avenida: 120",
        "telefono": "0993123064",
        "correo": "marcoa@gmail.com"
    },

    {
        "cedula": "1307353662",
        "nombres": "Danny Suarez",
        "direccion": "Calle: 310; Avenida: 120",
        "telefono": "0937623064",
        "correo": "danny@gmail.com"
    },

    {
        "cedula": "1306698542",
        "nombres": "Jacinto Alfaro",
        "direccion": "Calle: 200; Avenida: 120",
        "telefono": "0991533064",
        "correo": "jacinto@gmail.com"
    },

    {
        "cedula": "1303757618",
        "nombres": "Miguel Franco",
        "direccion": "Calle: 310; Avenida: 120",
        "telefono": "0910623964",
        "correo": "miguel@gmail.com"
    }
    
]



